Text Analysis in R
…
---

# The Text

.smallish[

```r
tree
```

```
## # A tibble: 253 x 1
##    text                                                                    
##    <chr>                                                                   
##  1 Far down in the forest, where the warm sun and the fresh air made a swe…
##  2 resting-place, grew a pretty little fir-tree; and yet it was not happy,…
##  3 wished so much to be tall like its companions– the pines and firs which…
##  4 around it. The sun shone, and the soft air fluttered its leaves, and the
##  5 little peasant children passed by, prattling merrily, but the fir-tree …
##  6 them not. Sometimes the children would bring a large basket of raspberr…
##  7 strawberries, wreathed on a straw, and seat themselves near the fir-tre…
##  8 "say, \"Is it not a pretty little tree?\" which made it feel more unhap…
##  9 before.                                                                 
## 10 And yet all this while the tree grew a notch or joint taller every year…
## # ... with 243 more rows
```
]

---

.pull-left[

```r
library(tidytext)

*unnest_tokens(tree, word, text)
```

```
## # A tibble: 3,288 x 1
##    word  
##    <chr> 
##  1 far   
##  2 down  
##  3 in    
##  4 the   
##  5 forest
##  6 where 
##  7 the   
##  8 warm  
##  9 sun   
## 10 and   
## # ... with 3,278 more rows
```
…
---

.pull-left[

```r
library(tidytext)

*unnest_tokens(tree, word, text)
```

```
## # A tibble: 3,288 x 1
##    word  
##    <chr> 
##  1 far   
##  2 down  
##  3 in    
##  4 the   
##  5 forest
##  6 where 
##  7 the   
##  8 warm  
##  9 sun   
## 10 and   
## # ... with 3,278 more rows
```
…
Word tokens are default in `unnest_tokens()`
]

---

```r
library(tidytext)

unnest_tokens(tree, word, text) %>%
* count(word, sort = TRUE)
```

```
## # A tibble: 745 x 2
##    word      n
##    <chr> <int>
##  1 the     278
##  2 and     161
##  3 tree     76
##  4 it       66
##  5 a        56
##  6 in       55
##  7 of       54
##  8 to       54
##  9 i        53
## 10 was      39
## # ... with 735 more rows
```

---

```r
library(tidytext)

unnest_tokens(tree, word, text) %>%
* count(word, sort = TRUE)
```

```
## # A tibble: 745 x 2
##    word      n
##    <chr> <int>
*##  1 the     278
*##  2 and     161
##  3 tree     76
*##  4 it       66
*##  5 a        56
*##  6 in       55
*##  7 of       54
*##  8 to       54
*##  9 i        53
*## 10 was      39
## # ... with 735 more rows
```
…
Look at the words you remove (easy)  

or know you stop word by heart (hard!!!)

---

```r
unnest_tokens(tree, word, text) %>%
* anti_join(stop_words, by = "word") %>%
  count(word, sort = TRUE)
```

```
## # A tibble: 500 x 2
##    word         n
##    <chr>    <int>
##  1 tree        76
##  2 fir         33
##  3 branches    14
##  4 story       14
##  5 forest      13
##  6 mice        12
##  7 trees       12
##  8 children    10
##  9 dumpty      10
## 10 humpty      10
## # ... with 490 more rows
```
…
Scraped review (scraping_reviews.Rmd)

```r
library(readr)
library(tidyr)
reviews <- read_csv("review_data.csv") %>%
  select(movie, rating, review) %>%
  drop_na()
```

.smallish[

```
## # A tibble: 703 x 3
##    movie rating review                                                    
##    <chr>  <dbl> <chr>                                                     
##  1 elf        9 "This was my 4th viewing and now ready to review.The stor…
##  2 elf       10 "This was one of my favorite movies in 2003. Will Ferrell…
##  3 elf        7 "Charming Christmas confection--about a boy raised by elv…
##  4 elf       10 "Will Ferrell does a great job here, and it's the perfect…
##  5 elf       10 It was so nice to be able to sit down and watch a movie f…
##  6 elf        6 "This is a good natured holiday comedy that definitely is…
##  7 elf        8 "BEWARE OF BOGUS REVIEWS. SOME REVIEWERS HAVE ONLY ONE RE…
##  8 elf        6 A nice Christmas-themed movie. Nice is very apt for this …
##  9 elf        9 "The most helpful thing I can tell you about this movie i…
## 10 elf        8 "I do love Christmas movies, always a sucker for them eve…
## # ... with 693 more rows
```
…
---

```r
# Processed data
train_data <- juice(review_rec)
test_data  <- bake(review_rec, review_test, all_predictors())
```

```r
train_data
```

```
## # A tibble: 528 x 501
##    good  tf_text_1 tf_text_10 tf_text_2 tf_text_5 tf_text_6 tf_text_7
##    <fct>     <dbl>      <dbl>     <dbl>     <dbl>     <dbl>     <dbl>
##  1 good          0          0         0         0         0         0
##  2 good          0          0         0         0         0         0
##  3 good          0          0         0         0         0         0
##  4 good          0          0         0         0         0         0
##  5 good          0          0         0         0         0         0
##  6 good          0          0         0         0         0         0
##  7 good          0          0         0         1         0         0
##  8 good          0          1         0         0         0         0
##  9 good          0          1         0         0         0         0
## 10 good          0          1         0         0         0         0
## # ... with 518 more rows, and 494 more variables: tf_text_8 <dbl>,
## #   tf_text_a <dbl>, tf_text_about <dbl>, tf_text_absolutely <dbl>,
## #   tf_text_acting <dbl>, tf_text_action <dbl>, tf_text_actor <dbl>,
## #   tf_text_actors <dbl>, tf_text_actually <dbl>, tf_text_added <dbl>,
## #   tf_text_adult <dbl>, tf_text_adults <dbl>, tf_text_after <dbl>,
## #   tf_text_again <dbl>, tf_text_all <dbl>, tf_text_almost <dbl>,
## #   tf_text_along <dbl>, tf_text_already <dbl>, tf_text_also <dbl>,
## #   tf_text_although <dbl>, tf_text_always <dbl>, tf_text_am <dbl>,
## #   tf_text_amazing <dbl>, tf_text_an <dbl>, tf_text_and <dbl>,
…
